
******************************************************************************
This program contains Ipopt, a library for large-scale nonlinear optimization.
 Ipopt is released as open source code under the Eclipse Public License (EPL).
         For more information visit http://projects.coin-or.org/Ipopt
******************************************************************************

This is Ipopt version 3.10.0, running with linear solver ma27.

Number of nonzeros in equality constraint Jacobian...:        4
Number of nonzeros in inequality constraint Jacobian.:        4
Number of nonzeros in Lagrangian Hessian.............:        0

Total number of variables............................:        4
                     variables with only lower bounds:        0
                variables with lower and upper bounds:        4
                     variables with only upper bounds:        0
Total number of equality constraints.................:        1
Total number of inequality constraints...............:        1
        inequality constraints with only lower bounds:        1
   inequality constraints with lower and upper bounds:        0
        inequality constraints with only upper bounds:        0

iter    objective    inf_pr   inf_du lg(mu)  ||d||  lg(rg) alpha_du alpha_pr  ls
   0  1.6109693e+01 1.12e+01 5.28e-01   0.0 0.00e+00    -  0.00e+00 0.00e+00   0
   1  1.7420709e+01 7.49e-01 2.40e+01  -0.3 8.13e-01    -  3.20e-01 1.00e+00f  1
   2  1.7120453e+01 2.14e-01 2.00e-01  -0.6 1.02e+00    -  9.97e-01 1.00e+00h  1
   3  1.6979032e+01 1.70e-01 8.49e-02  -1.6 1.18e-01    -  9.72e-01 1.00e+00h  1
   4  1.6972554e+01 7.69e-02 1.20e-02  -3.2 8.01e-02    -  1.00e+00 1.00e+00h  1
   5  1.7013661e+01 6.75e-04 9.50e-03  -4.9 1.00e-02    -  1.00e+00 1.00e+00h  1
   6  1.7014018e+01 1.96e-06 3.49e-04  -6.1 1.09e-03    -  1.00e+00 1.00e+00h  1
   7  1.7014017e+01 1.47e-09 2.15e-07  -8.2 3.02e-05    -  1.00e+00 1.00e+00h  1
   8  1.7014017e+01 0.00e+00 1.69e-09 -11.0 1.17e-08    -  1.00e+00 1.00e+00h  1

Number of Iterations....: 8

                                   (scaled)                 (unscaled)
Objective...............:   1.7014017140224176e+01    1.7014017140224176e+01
Dual infeasibility......:   1.6853194126008227e-09    1.6853194126008227e-09
Constraint violation....:   0.0000000000000000e+00    0.0000000000000000e+00
Complementarity.........:   1.0002952000760601e-11    1.0002952000760601e-11
Overall NLP error.......:   1.6853194126008227e-09    1.6853194126008227e-09


Number of objective function evaluations             = 9
Number of objective gradient evaluations             = 9
Number of equality constraint evaluations            = 9
Number of inequality constraint evaluations          = 9
Number of equality constraint Jacobian evaluations   = 9
Number of inequality constraint Jacobian evaluations = 9
Number of Lagrangian Hessian evaluations             = 0
Total CPU secs in IPOPT (w/o function evaluations)   =      0.005
Total CPU secs in NLP function evaluations           =      0.000

EXIT: Optimal Solution Found.
