GFORTRAN module version '9' created from dimKrig.f90
MD5:0d134a4ec854902c3999158888d406be -- If you edit this, you'll get what you deserve.

(() () () () () () () () () () () () () () () () () () () () () () () ()
() () ())

()

()

()

()

()

(2 'bdfac' 'dimkrig' '' 1 ((VARIABLE UNKNOWN-INTENT UNKNOWN-PROC UNKNOWN
IMPLICIT-SAVE 0 0) (REAL 8 0 0 0 REAL ()) 0 0 () () 0 () () () 0 0)
3 'c_dim' 'dimkrig' '' 1 ((VARIABLE UNKNOWN-INTENT UNKNOWN-PROC UNKNOWN
IMPLICIT-SAVE 0 0) (INTEGER 4 0 0 0 INTEGER ()) 0 0 () () 0 () () () 0 0)
4 'ccm' 'dimkrig' '' 1 ((VARIABLE UNKNOWN-INTENT UNKNOWN-PROC UNKNOWN
IMPLICIT-SAVE 0 0 ALLOCATABLE DIMENSION) (CHARACTER 1 0 0 0 CHARACTER (
(CONSTANT (INTEGER 4 0 0 0 INTEGER ()) 0 '6'))) 0 0 () (2 0 DEFERRED ()
() () ()) 0 () () () 0 0)
5 'ccon1' 'dimkrig' '' 1 ((VARIABLE UNKNOWN-INTENT UNKNOWN-PROC UNKNOWN
IMPLICIT-SAVE 0 0 DIMENSION) (CHARACTER 1 0 0 0 CHARACTER ((CONSTANT (
INTEGER 4 0 0 0 INTEGER ()) 0 '1'))) 0 0 () (1 0 EXPLICIT (CONSTANT (
INTEGER 4 0 0 0 INTEGER ()) 0 '1') (CONSTANT (INTEGER 4 0 0 0 INTEGER ())
0 '10')) 0 () () () 0 0)
6 'ccon2' 'dimkrig' '' 1 ((VARIABLE UNKNOWN-INTENT UNKNOWN-PROC UNKNOWN
IMPLICIT-SAVE 0 0 DIMENSION) (CHARACTER 1 0 0 0 CHARACTER ((CONSTANT (
INTEGER 4 0 0 0 INTEGER ()) 0 '7'))) 0 0 () (1 0 EXPLICIT (CONSTANT (
INTEGER 4 0 0 0 INTEGER ()) 0 '1') (CONSTANT (INTEGER 4 0 0 0 INTEGER ())
0 '10')) 0 () () () 0 0)
7 'ccrf' 'dimkrig' '' 1 ((VARIABLE UNKNOWN-INTENT UNKNOWN-PROC UNKNOWN
IMPLICIT-SAVE 0 0) (REAL 8 0 0 0 REAL ()) 0 0 () () 0 () () () 0 0)
8 'cmode' 'dimkrig' '' 1 ((VARIABLE UNKNOWN-INTENT UNKNOWN-PROC UNKNOWN
IMPLICIT-SAVE 0 0) (CHARACTER 1 0 0 0 CHARACTER ((CONSTANT (INTEGER 4 0
0 0 INTEGER ()) 0 '20'))) 0 0 () () 0 () () () 0 0)
9 'cnug' 'dimkrig' '' 1 ((VARIABLE UNKNOWN-INTENT UNKNOWN-PROC UNKNOWN
IMPLICIT-SAVE 0 0) (CHARACTER 1 0 0 0 CHARACTER ((CONSTANT (INTEGER 4 0
0 0 INTEGER ()) 0 '1'))) 0 0 () () 0 () () () 0 0)
10 'cpena' 'dimkrig' '' 1 ((VARIABLE UNKNOWN-INTENT UNKNOWN-PROC UNKNOWN
IMPLICIT-SAVE 0 0) (REAL 8 0 0 0 REAL ()) 0 0 () () 0 () () () 0 0)
11 'ctr' 'dimkrig' '' 1 ((VARIABLE UNKNOWN-INTENT UNKNOWN-PROC UNKNOWN
IMPLICIT-SAVE 0 0) (INTEGER 4 0 0 0 INTEGER ()) 0 0 () () 0 () () () 0 0)
12 'd_dim' 'dimkrig' '' 1 ((VARIABLE UNKNOWN-INTENT UNKNOWN-PROC UNKNOWN
IMPLICIT-SAVE 0 0) (INTEGER 4 0 0 0 INTEGER ()) 0 0 () () 0 () () () 0 0)
13 'd_power' 'dimkrig' '' 1 ((VARIABLE UNKNOWN-INTENT UNKNOWN-PROC
UNKNOWN IMPLICIT-SAVE 0 0 ALLOCATABLE DIMENSION) (REAL 8 0 0 0 REAL ())
0 0 () (2 0 DEFERRED () () () ()) 0 () () () 0 0)
14 'd_theta' 'dimkrig' '' 1 ((VARIABLE UNKNOWN-INTENT UNKNOWN-PROC
UNKNOWN IMPLICIT-SAVE 0 0 ALLOCATABLE DIMENSION) (REAL 8 0 0 0 REAL ())
0 0 () (2 0 DEFERRED () () () ()) 0 () () () 0 0)
15 'dadd' 'dimkrig' '' 1 ((VARIABLE UNKNOWN-INTENT UNKNOWN-PROC UNKNOWN
IMPLICIT-SAVE 0 0 ALLOCATABLE DIMENSION) (REAL 8 0 0 0 REAL ()) 0 0 () (
2 0 DEFERRED () () () ()) 0 () () () 0 0)
16 'dak' 'dimkrig' '' 1 ((VARIABLE UNKNOWN-INTENT UNKNOWN-PROC UNKNOWN
IMPLICIT-SAVE 0 0 ALLOCATABLE DIMENSION) (REAL 8 0 0 0 REAL ()) 0 0 () (
2 0 DEFERRED () () () ()) 0 () () () 0 0)
17 'dat' 'dimkrig' '' 1 ((VARIABLE UNKNOWN-INTENT UNKNOWN-PROC UNKNOWN
IMPLICIT-SAVE 0 0 DIMENSION) (REAL 8 0 0 0 REAL ()) 0 0 () (1 0 EXPLICIT
(CONSTANT (INTEGER 4 0 0 0 INTEGER ()) 0 '1') (CONSTANT (INTEGER 4 0 0 0
INTEGER ()) 0 '20')) 0 () () () 0 0)
18 'devi' 'dimkrig' '' 1 ((VARIABLE UNKNOWN-INTENT UNKNOWN-PROC UNKNOWN
IMPLICIT-SAVE 0 0) (REAL 8 0 0 0 REAL ()) 0 0 () () 0 () () () 0 0)
19 'deviratio' 'dimkrig' '' 1 ((VARIABLE UNKNOWN-INTENT UNKNOWN-PROC
UNKNOWN IMPLICIT-SAVE 0 0 ALLOCATABLE DIMENSION) (REAL 8 0 0 0 REAL ())
0 0 () (1 0 DEFERRED () ()) 0 () () () 0 0)
20 'deviratio_best' 'dimkrig' '' 1 ((VARIABLE UNKNOWN-INTENT
UNKNOWN-PROC UNKNOWN IMPLICIT-SAVE 0 0 ALLOCATABLE DIMENSION) (REAL 8 0
0 0 REAL ()) 0 0 () (1 0 DEFERRED () ()) 0 () () () 0 0)
21 'devmax' 'dimkrig' '' 1 ((VARIABLE UNKNOWN-INTENT UNKNOWN-PROC
UNKNOWN IMPLICIT-SAVE 0 0) (REAL 8 0 0 0 REAL ()) 0 0 () () 0 () () () 0
0)
22 'devmin' 'dimkrig' '' 1 ((VARIABLE UNKNOWN-INTENT UNKNOWN-PROC
UNKNOWN IMPLICIT-SAVE 0 0) (REAL 8 0 0 0 REAL ()) 0 0 () () 0 () () () 0
0)
23 'diffloc' 'dimkrig' '' 1 ((VARIABLE UNKNOWN-INTENT UNKNOWN-PROC
UNKNOWN IMPLICIT-SAVE 0 0) (REAL 8 0 0 0 REAL ()) 0 0 () () 0 () () () 0
0)
24 'diffloc2' 'dimkrig' '' 1 ((VARIABLE UNKNOWN-INTENT UNKNOWN-PROC
UNKNOWN IMPLICIT-SAVE 0 0) (REAL 8 0 0 0 REAL ()) 0 0 () () 0 () () () 0
0)
25 'difflocar' 'dimkrig' '' 1 ((VARIABLE UNKNOWN-INTENT UNKNOWN-PROC
UNKNOWN IMPLICIT-SAVE 0 0 DIMENSION) (REAL 8 0 0 0 REAL ()) 0 0 () (1 0
EXPLICIT (CONSTANT (INTEGER 4 0 0 0 INTEGER ()) 0 '1') (CONSTANT (
INTEGER 4 0 0 0 INTEGER ()) 0 '1000')) 0 () () () 0 0)
26 'difflocmax' 'dimkrig' '' 1 ((VARIABLE UNKNOWN-INTENT UNKNOWN-PROC
UNKNOWN IMPLICIT-SAVE 0 0) (REAL 8 0 0 0 REAL ()) 0 0 () () 0 () () () 0
0)
27 'dimkrig' 'dimkrig' '' 1 ((MODULE UNKNOWN-INTENT UNKNOWN-PROC UNKNOWN
UNKNOWN 0 0) (UNKNOWN 0 0 0 0 UNKNOWN ()) 0 0 () () 0 () () () 0 0)
28 'distloc' 'dimkrig' '' 1 ((VARIABLE UNKNOWN-INTENT UNKNOWN-PROC
UNKNOWN IMPLICIT-SAVE 0 0) (REAL 8 0 0 0 REAL ()) 0 0 () () 0 () () () 0
0)
29 'dmul' 'dimkrig' '' 1 ((VARIABLE UNKNOWN-INTENT UNKNOWN-PROC UNKNOWN
IMPLICIT-SAVE 0 0 ALLOCATABLE DIMENSION) (REAL 8 0 0 0 REAL ()) 0 0 () (
2 0 DEFERRED () () () ()) 0 () () () 0 0)
30 'dpar' 'dimkrig' '' 1 ((VARIABLE UNKNOWN-INTENT UNKNOWN-PROC UNKNOWN
IMPLICIT-SAVE 0 0) (REAL 8 0 0 0 REAL ()) 0 0 () () 0 () () () 0 0)
31 'ds' 'dimkrig' '' 1 ((VARIABLE UNKNOWN-INTENT UNKNOWN-PROC UNKNOWN
IMPLICIT-SAVE 0 0 DIMENSION) (REAL 8 0 0 0 REAL ()) 0 0 () (2 0 EXPLICIT
(CONSTANT (INTEGER 4 0 0 0 INTEGER ()) 0 '1') (CONSTANT (INTEGER 4 0 0 0
INTEGER ()) 0 '2') (CONSTANT (INTEGER 4 0 0 0 INTEGER ()) 0 '1') (
CONSTANT (INTEGER 4 0 0 0 INTEGER ()) 0 '100')) 0 () () () 0 0)
32 'dutchorderg' 'dimkrig' '' 1 ((VARIABLE UNKNOWN-INTENT UNKNOWN-PROC
UNKNOWN IMPLICIT-SAVE 0 0) (INTEGER 4 0 0 0 INTEGER ()) 0 0 () () 0 () ()
() 0 0)
33 'dxadd' 'dimkrig' '' 1 ((VARIABLE UNKNOWN-INTENT UNKNOWN-PROC UNKNOWN
IMPLICIT-SAVE 0 0 ALLOCATABLE DIMENSION) (REAL 8 0 0 0 REAL ()) 0 0 () (
1 0 DEFERRED () ()) 0 () () () 0 0)
34 'dynamics' 'dimkrig' '' 1 ((VARIABLE UNKNOWN-INTENT UNKNOWN-PROC
UNKNOWN IMPLICIT-SAVE 0 0) (INTEGER 4 0 0 0 INTEGER ()) 0 0 () () 0 () ()
() 0 0)
35 'evlfnc' 'dimkrig' '' 1 ((VARIABLE UNKNOWN-INTENT UNKNOWN-PROC
UNKNOWN IMPLICIT-SAVE 0 0) (INTEGER 4 0 0 0 INTEGER ()) 0 0 () () 0 () ()
() 0 0)
36 'fb' 'dimkrig' '' 1 ((VARIABLE UNKNOWN-INTENT UNKNOWN-PROC UNKNOWN
IMPLICIT-SAVE 0 0 ALLOCATABLE DIMENSION) (REAL 8 0 0 0 REAL ()) 0 0 () (
2 0 DEFERRED () () () ()) 0 () () () 0 0)
37 'fcnt' 'dimkrig' '' 1 ((VARIABLE UNKNOWN-INTENT UNKNOWN-PROC UNKNOWN
IMPLICIT-SAVE 0 0) (INTEGER 4 0 0 0 INTEGER ()) 0 0 () () 0 () () () 0 0)
38 'fct' 'dimkrig' '' 1 ((VARIABLE UNKNOWN-INTENT UNKNOWN-PROC UNKNOWN
IMPLICIT-SAVE 0 0) (INTEGER 4 0 0 0 INTEGER ()) 0 0 () () 0 () () () 0 0)
39 'fctindx' 'dimkrig' '' 1 ((VARIABLE UNKNOWN-INTENT UNKNOWN-PROC
UNKNOWN IMPLICIT-SAVE 0 0) (INTEGER 4 0 0 0 INTEGER ()) 0 0 () () 0 () ()
() 0 0)
40 'fgcnt' 'dimkrig' '' 1 ((VARIABLE UNKNOWN-INTENT UNKNOWN-PROC UNKNOWN
IMPLICIT-SAVE 0 0) (INTEGER 4 0 0 0 INTEGER ()) 0 0 () () 0 () () () 0 0)
41 'fghcnt' 'dimkrig' '' 1 ((VARIABLE UNKNOWN-INTENT UNKNOWN-PROC
UNKNOWN IMPLICIT-SAVE 0 0) (INTEGER 4 0 0 0 INTEGER ()) 0 0 () () 0 () ()
() 0 0)
42 'filenum' 'dimkrig' '' 1 ((VARIABLE UNKNOWN-INTENT UNKNOWN-PROC
UNKNOWN IMPLICIT-SAVE 0 0) (INTEGER 4 0 0 0 INTEGER ()) 0 0 () () 0 () ()
() 0 0)
43 'fmean' 'dimkrig' '' 1 ((VARIABLE UNKNOWN-INTENT UNKNOWN-PROC UNKNOWN
UNKNOWN 0 0) (REAL 8 0 0 0 REAL ()) 0 0 () () 0 () () () 0 0)
44 'fmeanprime' 'dimkrig' '' 1 ((VARIABLE UNKNOWN-INTENT UNKNOWN-PROC
UNKNOWN IMPLICIT-SAVE 0 0 DIMENSION) (REAL 8 0 0 0 REAL ()) 0 0 () (1 0
EXPLICIT (CONSTANT (INTEGER 4 0 0 0 INTEGER ()) 0 '1') (CONSTANT (
INTEGER 4 0 0 0 INTEGER ()) 0 '100')) 0 () () () 0 0)
45 'fr' 'dimkrig' '' 1 ((VARIABLE UNKNOWN-INTENT UNKNOWN-PROC UNKNOWN
IMPLICIT-SAVE 0 0 ALLOCATABLE DIMENSION) (REAL 8 0 0 0 REAL ()) 0 0 () (
2 0 DEFERRED () () () ()) 0 () () () 0 0)
46 'frfinv' 'dimkrig' '' 1 ((VARIABLE UNKNOWN-INTENT UNKNOWN-PROC
UNKNOWN IMPLICIT-SAVE 0 0 ALLOCATABLE DIMENSION) (REAL 8 0 0 0 REAL ())
0 0 () (2 0 DEFERRED () () () ()) 0 () () () 0 0)
47 'fun' 'dimkrig' '' 1 ((VARIABLE UNKNOWN-INTENT UNKNOWN-PROC UNKNOWN
IMPLICIT-SAVE 0 0 ALLOCATABLE DIMENSION) (REAL 8 0 0 0 REAL ()) 0 0 () (
1 0 DEFERRED () ()) 0 () () () 0 0)
48 'func' 'dimkrig' '' 1 ((VARIABLE UNKNOWN-INTENT UNKNOWN-PROC UNKNOWN
IMPLICIT-SAVE 0 0 ALLOCATABLE DIMENSION) (REAL 8 0 0 0 REAL ()) 0 0 () (
2 0 DEFERRED () () () ()) 0 () () () 0 0)
49 'fvar' 'dimkrig' '' 1 ((VARIABLE UNKNOWN-INTENT UNKNOWN-PROC UNKNOWN
UNKNOWN 0 0) (REAL 8 0 0 0 REAL ()) 0 0 () () 0 () () () 0 0)
50 'fvarprime' 'dimkrig' '' 1 ((VARIABLE UNKNOWN-INTENT UNKNOWN-PROC
UNKNOWN IMPLICIT-SAVE 0 0 DIMENSION) (REAL 8 0 0 0 REAL ()) 0 0 () (1 0
EXPLICIT (CONSTANT (INTEGER 4 0 0 0 INTEGER ()) 0 '1') (CONSTANT (
INTEGER 4 0 0 0 INTEGER ()) 0 '100')) 0 () () () 0 0)
51 'gfun' 'dimkrig' '' 1 ((VARIABLE UNKNOWN-INTENT UNKNOWN-PROC UNKNOWN
IMPLICIT-SAVE 0 0 ALLOCATABLE DIMENSION) (REAL 8 0 0 0 REAL ()) 0 0 () (
2 0 DEFERRED () () () ()) 0 () () () 0 0)
52 'gfunc' 'dimkrig' '' 1 ((VARIABLE UNKNOWN-INTENT UNKNOWN-PROC UNKNOWN
IMPLICIT-SAVE 0 0 ALLOCATABLE DIMENSION) (REAL 8 0 0 0 REAL ()) 0 0 () (
3 0 DEFERRED () () () () () ()) 0 () () () 0 0)
53 'hfun' 'dimkrig' '' 1 ((VARIABLE UNKNOWN-INTENT UNKNOWN-PROC UNKNOWN
IMPLICIT-SAVE 0 0 ALLOCATABLE DIMENSION) (REAL 8 0 0 0 REAL ()) 0 0 () (
3 0 DEFERRED () () () () () ()) 0 () () () 0 0)
54 'hfunc' 'dimkrig' '' 1 ((VARIABLE UNKNOWN-INTENT UNKNOWN-PROC UNKNOWN
IMPLICIT-SAVE 0 0 ALLOCATABLE DIMENSION) (REAL 8 0 0 0 REAL ()) 0 0 () (
4 0 DEFERRED () () () () () () () ()) 0 () () () 0 0)
55 'hstat' 'dimkrig' '' 1 ((VARIABLE UNKNOWN-INTENT UNKNOWN-PROC UNKNOWN
IMPLICIT-SAVE 0 0) (INTEGER 4 0 0 0 INTEGER ()) 0 0 () () 0 () () () 0 0)
56 'hvec' 'dimkrig' '' 1 ((VARIABLE UNKNOWN-INTENT UNKNOWN-PROC UNKNOWN
IMPLICIT-SAVE 0 0 ALLOCATABLE DIMENSION) (REAL 8 0 0 0 REAL ()) 0 0 () (
3 0 DEFERRED () () () () () ()) 0 () () () 0 0)
57 'hvect' 'dimkrig' '' 1 ((VARIABLE UNKNOWN-INTENT UNKNOWN-PROC UNKNOWN
IMPLICIT-SAVE 0 0 ALLOCATABLE DIMENSION) (REAL 8 0 0 0 REAL ()) 0 0 () (
4 0 DEFERRED () () () () () () () ()) 0 () () () 0 0)
58 'i_dim' 'dimkrig' '' 1 ((VARIABLE UNKNOWN-INTENT UNKNOWN-PROC UNKNOWN
IMPLICIT-SAVE 0 0) (INTEGER 4 0 0 0 INTEGER ()) 0 0 () () 0 () () () 0 0)
59 'iak' 'dimkrig' '' 1 ((VARIABLE UNKNOWN-INTENT UNKNOWN-PROC UNKNOWN
IMPLICIT-SAVE 0 0 ALLOCATABLE DIMENSION) (INTEGER 4 0 0 0 INTEGER ()) 0
0 () (2 0 DEFERRED () () () ()) 0 () () () 0 0)
60 'ibl' 'dimkrig' '' 1 ((VARIABLE UNKNOWN-INTENT UNKNOWN-PROC UNKNOWN
IMPLICIT-SAVE 0 0 ALLOCATABLE DIMENSION) (INTEGER 4 0 0 0 INTEGER ()) 0
0 () (2 0 DEFERRED () () () ()) 0 () () () 0 0)
61 'icm' 'dimkrig' '' 1 ((VARIABLE UNKNOWN-INTENT UNKNOWN-PROC UNKNOWN
IMPLICIT-SAVE 0 0 ALLOCATABLE DIMENSION) (INTEGER 4 0 0 0 INTEGER ()) 0
0 () (2 0 DEFERRED () () () ()) 0 () () () 0 0)
62 'icone' 'dimkrig' '' 1 ((VARIABLE UNKNOWN-INTENT UNKNOWN-PROC UNKNOWN
IMPLICIT-SAVE 0 0 ALLOCATABLE DIMENSION) (INTEGER 4 0 0 0 INTEGER ()) 0
0 () (1 0 DEFERRED () ()) 0 () () () 0 0)
63 'ict_dummy' 'dimkrig' '' 1 ((VARIABLE UNKNOWN-INTENT UNKNOWN-PROC
UNKNOWN IMPLICIT-SAVE 0 0 DIMENSION) (INTEGER 4 0 0 0 INTEGER ()) 0 0 ()
(1 0 EXPLICIT (CONSTANT (INTEGER 4 0 0 0 INTEGER ()) 0 '0') (CONSTANT (
INTEGER 4 0 0 0 INTEGER ()) 0 '10')) 0 () () () 0 0)
64 'ict_sample' 'dimkrig' '' 1 ((VARIABLE UNKNOWN-INTENT UNKNOWN-PROC
UNKNOWN IMPLICIT-SAVE 0 0 DIMENSION) (INTEGER 4 0 0 0 INTEGER ()) 0 0 ()
(2 0 EXPLICIT (CONSTANT (INTEGER 4 0 0 0 INTEGER ()) 0 '0') (CONSTANT (
INTEGER 4 0 0 0 INTEGER ()) 0 '10') (CONSTANT (INTEGER 4 0 0 0 INTEGER ())
0 '0') (CONSTANT (INTEGER 4 0 0 0 INTEGER ()) 0 '10')) 0 () () () 0 0)
65 'id_proc' 'dimkrig' '' 1 ((VARIABLE UNKNOWN-INTENT UNKNOWN-PROC
UNKNOWN IMPLICIT-SAVE 0 0) (INTEGER 4 0 0 0 INTEGER ()) 0 0 () () 0 () ()
() 0 0)
66 'idopt' 'dimkrig' '' 1 ((VARIABLE UNKNOWN-INTENT UNKNOWN-PROC UNKNOWN
IMPLICIT-SAVE 0 0 DIMENSION) (INTEGER 4 0 0 0 INTEGER ()) 0 0 () (1 0
EXPLICIT (CONSTANT (INTEGER 4 0 0 0 INTEGER ()) 0 '1') (CONSTANT (
INTEGER 4 0 0 0 INTEGER ()) 0 '10')) 0 () () () 0 0)
67 'ifid' 'dimkrig' '' 1 ((VARIABLE UNKNOWN-INTENT UNKNOWN-PROC UNKNOWN
IMPLICIT-SAVE 0 0) (INTEGER 4 0 0 0 INTEGER ()) 0 0 () () 0 () () () 0 0)
68 'inf' 'dimkrig' '' 1 ((VARIABLE UNKNOWN-INTENT UNKNOWN-PROC UNKNOWN
IMPLICIT-SAVE 0 0 ALLOCATABLE DIMENSION) (CHARACTER 1 0 0 0 CHARACTER (
(CONSTANT (INTEGER 4 0 0 0 INTEGER ()) 0 '6'))) 0 0 () (1 0 DEFERRED ()
()) 0 () () () 0 0)
69 'info' 'dimkrig' '' 1 ((VARIABLE UNKNOWN-INTENT UNKNOWN-PROC UNKNOWN
IMPLICIT-SAVE 0 0 ALLOCATABLE DIMENSION) (CHARACTER 1 0 0 0 CHARACTER (
(CONSTANT (INTEGER 4 0 0 0 INTEGER ()) 0 '6'))) 0 0 () (1 0 DEFERRED ()
()) 0 () () () 0 0)
70 'ipv' 'dimkrig' '' 1 ((VARIABLE UNKNOWN-INTENT UNKNOWN-PROC UNKNOWN
IMPLICIT-SAVE 0 0 ALLOCATABLE DIMENSION) (INTEGER 4 0 0 0 INTEGER ()) 0
0 () (2 0 DEFERRED () () () ()) 0 () () () 0 0)
71 'iran' 'dimkrig' '' 1 ((VARIABLE UNKNOWN-INTENT UNKNOWN-PROC UNKNOWN
IMPLICIT-SAVE 0 0) (INTEGER 4 0 0 0 INTEGER ()) 0 0 () () 0 () () () 0 0)
72 'irij' 'dimkrig' '' 1 ((VARIABLE UNKNOWN-INTENT UNKNOWN-PROC UNKNOWN
IMPLICIT-SAVE 0 0 ALLOCATABLE DIMENSION) (INTEGER 4 0 0 0 INTEGER ()) 0
0 () (2 0 DEFERRED () () () ()) 0 () () () 0 0)
73 'iscf' 'dimkrig' '' 1 ((VARIABLE UNKNOWN-INTENT UNKNOWN-PROC UNKNOWN
IMPLICIT-SAVE 0 0) (INTEGER 4 0 0 0 INTEGER ()) 0 0 () () 0 () () () 0 0)
74 'it4opt' 'dimkrig' '' 1 ((VARIABLE UNKNOWN-INTENT UNKNOWN-PROC
UNKNOWN IMPLICIT-SAVE 0 0) (INTEGER 4 0 0 0 INTEGER ()) 0 0 () () 0 () ()
() 0 0)
75 'iterdel' 'dimkrig' '' 1 ((VARIABLE UNKNOWN-INTENT UNKNOWN-PROC
UNKNOWN IMPLICIT-SAVE 0 0) (INTEGER 4 0 0 0 INTEGER ()) 0 0 () () 0 () ()
() 0 0)
76 'itrust' 'dimkrig' '' 1 ((VARIABLE UNKNOWN-INTENT UNKNOWN-PROC
UNKNOWN IMPLICIT-SAVE 0 0) (INTEGER 4 0 0 0 INTEGER ()) 0 0 () () 0 () ()
() 0 0)
77 'j_dim' 'dimkrig' '' 1 ((VARIABLE UNKNOWN-INTENT UNKNOWN-PROC UNKNOWN
IMPLICIT-SAVE 0 0) (INTEGER 4 0 0 0 INTEGER ()) 0 0 () () 0 () () () 0 0)
78 'jbl' 'dimkrig' '' 1 ((VARIABLE UNKNOWN-INTENT UNKNOWN-PROC UNKNOWN
IMPLICIT-SAVE 0 0 ALLOCATABLE DIMENSION) (INTEGER 4 0 0 0 INTEGER ()) 0
0 () (2 0 DEFERRED () () () ()) 0 () () () 0 0)
79 'kord' 'dimkrig' '' 1 ((VARIABLE UNKNOWN-INTENT UNKNOWN-PROC UNKNOWN
IMPLICIT-SAVE 0 0) (INTEGER 4 0 0 0 INTEGER ()) 0 0 () () 0 () () () 0 0)
80 'kreg' 'dimkrig' '' 1 ((VARIABLE UNKNOWN-INTENT UNKNOWN-PROC UNKNOWN
IMPLICIT-SAVE 0 0) (INTEGER 4 0 0 0 INTEGER ()) 0 0 () () 0 () () () 0 0)
81 'kreg_orig' 'dimkrig' '' 1 ((VARIABLE UNKNOWN-INTENT UNKNOWN-PROC
UNKNOWN IMPLICIT-SAVE 0 0) (INTEGER 4 0 0 0 INTEGER ()) 0 0 () () 0 () ()
() 0 0)
82 'lhsdyn' 'dimkrig' '' 1 ((VARIABLE UNKNOWN-INTENT UNKNOWN-PROC
UNKNOWN IMPLICIT-SAVE 0 0) (LOGICAL 4 0 0 0 LOGICAL ()) 0 0 () () 0 () ()
() 0 0)
83 'llfd_best' 'dimkrig' '' 1 ((VARIABLE UNKNOWN-INTENT UNKNOWN-PROC
UNKNOWN IMPLICIT-SAVE 0 0) (REAL 8 0 0 0 REAL ()) 0 0 () () 0 () () () 0
0)
84 'lmax' 'dimkrig' '' 1 ((VARIABLE UNKNOWN-INTENT UNKNOWN-PROC UNKNOWN
IMPLICIT-SAVE 0 0) (INTEGER 4 0 0 0 INTEGER ()) 0 0 () () 0 () () () 0 0)
85 'loopcounter' 'dimkrig' '' 1 ((VARIABLE UNKNOWN-INTENT UNKNOWN-PROC
UNKNOWN IMPLICIT-SAVE 0 0) (INTEGER 4 0 0 0 INTEGER ()) 0 0 () () 0 () ()
() 0 0)
86 'lopt' 'dimkrig' '' 1 ((VARIABLE UNKNOWN-INTENT UNKNOWN-PROC UNKNOWN
IMPLICIT-SAVE 0 0) (INTEGER 4 0 0 0 INTEGER ()) 0 0 () () 0 () () () 0 0)
87 'lstat' 'dimkrig' '' 1 ((VARIABLE UNKNOWN-INTENT UNKNOWN-PROC UNKNOWN
IMPLICIT-SAVE 0 0) (INTEGER 4 0 0 0 INTEGER ()) 0 0 () () 0 () () () 0 0)
88 'mainprog' 'dimkrig' '' 1 ((VARIABLE UNKNOWN-INTENT UNKNOWN-PROC
UNKNOWN IMPLICIT-SAVE 0 0) (LOGICAL 4 0 0 0 LOGICAL ()) 0 0 () () 0 () ()
() 0 0)
89 'maxsample' 'dimkrig' '' 1 ((VARIABLE UNKNOWN-INTENT UNKNOWN-PROC
UNKNOWN IMPLICIT-SAVE 0 0) (INTEGER 4 0 0 0 INTEGER ()) 0 0 () () 0 () ()
() 0 0)
90 'maxsamplewant' 'dimkrig' '' 1 ((VARIABLE UNKNOWN-INTENT UNKNOWN-PROC
UNKNOWN IMPLICIT-SAVE 0 0) (INTEGER 4 0 0 0 INTEGER ()) 0 0 () () 0 () ()
() 0 0)
91 'mean' 'dimkrig' '' 1 ((VARIABLE UNKNOWN-INTENT UNKNOWN-PROC UNKNOWN
IMPLICIT-SAVE 0 0 ALLOCATABLE DIMENSION) (REAL 8 0 0 0 REAL ()) 0 0 () (
2 0 DEFERRED () () () ()) 0 () () () 0 0)
92 'mei' 'dimkrig' '' 1 ((VARIABLE UNKNOWN-INTENT UNKNOWN-PROC UNKNOWN
IMPLICIT-SAVE 0 0) (INTEGER 4 0 0 0 INTEGER ()) 0 0 () () 0 () () () 0 0)
93 'mgfac' 'dimkrig' '' 1 ((VARIABLE UNKNOWN-INTENT UNKNOWN-PROC UNKNOWN
IMPLICIT-SAVE 0 0) (REAL 8 0 0 0 REAL ()) 0 0 () () 0 () () () 0 0)
94 'mlc' 'dimkrig' '' 1 ((VARIABLE UNKNOWN-INTENT UNKNOWN-PROC UNKNOWN
IMPLICIT-SAVE 0 0) (INTEGER 4 0 0 0 INTEGER ()) 0 0 () () 0 () () () 0 0)
95 'mode_dck' 'dimkrig' '' 1 ((VARIABLE UNKNOWN-INTENT UNKNOWN-PROC
UNKNOWN IMPLICIT-SAVE 0 0) (INTEGER 4 0 0 0 INTEGER ()) 0 0 () () 0 () ()
() 0 0)
96 'mreg' 'dimkrig' '' 1 ((VARIABLE UNKNOWN-INTENT UNKNOWN-PROC UNKNOWN
IMPLICIT-SAVE 0 0 ALLOCATABLE DIMENSION) (INTEGER 4 0 0 0 INTEGER ()) 0
0 () (2 0 DEFERRED () () () ()) 0 () () () 0 0)
97 'ncok' 'dimkrig' '' 1 ((VARIABLE UNKNOWN-INTENT UNKNOWN-PROC UNKNOWN
IMPLICIT-SAVE 0 0) (INTEGER 4 0 0 0 INTEGER ()) 0 0 () () 0 () () () 0 0)
98 'ncon' 'dimkrig' '' 1 ((VARIABLE UNKNOWN-INTENT UNKNOWN-PROC UNKNOWN
IMPLICIT-SAVE 0 0) (INTEGER 4 0 0 0 INTEGER ()) 0 0 () () 0 () () () 0 0)
99 'ncr1' 'dimkrig' '' 1 ((VARIABLE UNKNOWN-INTENT UNKNOWN-PROC UNKNOWN
IMPLICIT-SAVE 0 0) (INTEGER 4 0 0 0 INTEGER ()) 0 0 () () 0 () () () 0 0)
100 'ncr2' 'dimkrig' '' 1 ((VARIABLE UNKNOWN-INTENT UNKNOWN-PROC UNKNOWN
IMPLICIT-SAVE 0 0) (INTEGER 4 0 0 0 INTEGER ()) 0 0 () () 0 () () () 0 0)
101 'ndck' 'dimkrig' '' 1 ((VARIABLE UNKNOWN-INTENT UNKNOWN-PROC UNKNOWN
IMPLICIT-SAVE 0 0) (INTEGER 4 0 0 0 INTEGER ()) 0 0 () () 0 () () () 0 0)
102 'ndebug' 'dimkrig' '' 1 ((VARIABLE UNKNOWN-INTENT UNKNOWN-PROC
UNKNOWN IMPLICIT-SAVE 0 0) (INTEGER 4 0 0 0 INTEGER ()) 0 0 () () 0 () ()
() 0 0)
103 'ndiffloc' 'dimkrig' '' 1 ((VARIABLE UNKNOWN-INTENT UNKNOWN-PROC
UNKNOWN IMPLICIT-SAVE 0 0) (INTEGER 4 0 0 0 INTEGER ()) 0 0 () () 0 () ()
() 0 0)
104 'ndim' 'dimkrig' '' 1 ((VARIABLE UNKNOWN-INTENT UNKNOWN-PROC UNKNOWN
IMPLICIT-SAVE 0 0) (INTEGER 4 0 0 0 INTEGER ()) 0 0 () () 0 () () () 0 0)
105 'ndimt' 'dimkrig' '' 1 ((VARIABLE UNKNOWN-INTENT UNKNOWN-PROC
UNKNOWN IMPLICIT-SAVE 0 0) (INTEGER 4 0 0 0 INTEGER ()) 0 0 () () 0 () ()
() 0 0)
106 'ndmf' 'dimkrig' '' 1 ((VARIABLE UNKNOWN-INTENT UNKNOWN-PROC UNKNOWN
IMPLICIT-SAVE 0 0) (INTEGER 4 0 0 0 INTEGER ()) 0 0 () () 0 () () () 0 0)
107 'newflag' 'dimkrig' '' 1 ((VARIABLE UNKNOWN-INTENT UNKNOWN-PROC
UNKNOWN IMPLICIT-SAVE 0 0) (INTEGER 4 0 0 0 INTEGER ()) 0 0 () () 0 () ()
() 0 0)
108 'nfcok' 'dimkrig' '' 1 ((VARIABLE UNKNOWN-INTENT UNKNOWN-PROC
UNKNOWN IMPLICIT-SAVE 0 0 DIMENSION) (INTEGER 4 0 0 0 INTEGER ()) 0 0 ()
(1 0 EXPLICIT (CONSTANT (INTEGER 4 0 0 0 INTEGER ()) 0 '1') (CONSTANT (
INTEGER 4 0 0 0 INTEGER ()) 0 '10')) 0 () () () 0 0)
109 'nfcon' 'dimkrig' '' 1 ((VARIABLE UNKNOWN-INTENT UNKNOWN-PROC
UNKNOWN IMPLICIT-SAVE 0 0 DIMENSION) (INTEGER 4 0 0 0 INTEGER ()) 0 0 ()
(1 0 EXPLICIT (CONSTANT (INTEGER 4 0 0 0 INTEGER ()) 0 '1') (CONSTANT (
INTEGER 4 0 0 0 INTEGER ()) 0 '10')) 0 () () () 0 0)
110 'nfdck' 'dimkrig' '' 1 ((VARIABLE UNKNOWN-INTENT UNKNOWN-PROC
UNKNOWN IMPLICIT-SAVE 0 0 DIMENSION) (INTEGER 4 0 0 0 INTEGER ()) 0 0 ()
(1 0 EXPLICIT (CONSTANT (INTEGER 4 0 0 0 INTEGER ()) 0 '1') (CONSTANT (
INTEGER 4 0 0 0 INTEGER ()) 0 '10')) 0 () () () 0 0)
111 'nfdmf' 'dimkrig' '' 1 ((VARIABLE UNKNOWN-INTENT UNKNOWN-PROC
UNKNOWN IMPLICIT-SAVE 0 0 DIMENSION) (INTEGER 4 0 0 0 INTEGER ()) 0 0 ()
(1 0 EXPLICIT (CONSTANT (INTEGER 4 0 0 0 INTEGER ()) 0 '1') (CONSTANT (
INTEGER 4 0 0 0 INTEGER ()) 0 '10')) 0 () () () 0 0)
112 'nfick' 'dimkrig' '' 1 ((VARIABLE UNKNOWN-INTENT UNKNOWN-PROC
UNKNOWN IMPLICIT-SAVE 0 0 DIMENSION) (INTEGER 4 0 0 0 INTEGER ()) 0 0 ()
(1 0 EXPLICIT (CONSTANT (INTEGER 4 0 0 0 INTEGER ()) 0 '1') (CONSTANT (
INTEGER 4 0 0 0 INTEGER ()) 0 '10')) 0 () () () 0 0)
113 'nfkri' 'dimkrig' '' 1 ((VARIABLE UNKNOWN-INTENT UNKNOWN-PROC
UNKNOWN IMPLICIT-SAVE 0 0 DIMENSION) (INTEGER 4 0 0 0 INTEGER ()) 0 0 ()
(1 0 EXPLICIT (CONSTANT (INTEGER 4 0 0 0 INTEGER ()) 0 '1') (CONSTANT (
INTEGER 4 0 0 0 INTEGER ()) 0 '10')) 0 () () () 0 0)
114 'nfopt' 'dimkrig' '' 1 ((VARIABLE UNKNOWN-INTENT UNKNOWN-PROC
UNKNOWN IMPLICIT-SAVE 0 0 DIMENSION) (INTEGER 4 0 0 0 INTEGER ()) 0 0 ()
(1 0 EXPLICIT (CONSTANT (INTEGER 4 0 0 0 INTEGER ()) 0 '1') (CONSTANT (
INTEGER 4 0 0 0 INTEGER ()) 0 '10')) 0 () () () 0 0)
115 'nfunc' 'dimkrig' '' 1 ((VARIABLE UNKNOWN-INTENT UNKNOWN-PROC
UNKNOWN IMPLICIT-SAVE 0 0) (INTEGER 4 0 0 0 INTEGER ()) 0 0 () () 0 () ()
() 0 0)
116 'nfvfm' 'dimkrig' '' 1 ((VARIABLE UNKNOWN-INTENT UNKNOWN-PROC
UNKNOWN IMPLICIT-SAVE 0 0 DIMENSION) (INTEGER 4 0 0 0 INTEGER ()) 0 0 ()
(1 0 EXPLICIT (CONSTANT (INTEGER 4 0 0 0 INTEGER ()) 0 '1') (CONSTANT (
INTEGER 4 0 0 0 INTEGER ()) 0 '10')) 0 () () () 0 0)
117 'ngput' 'dimkrig' '' 1 ((VARIABLE UNKNOWN-INTENT UNKNOWN-PROC
UNKNOWN IMPLICIT-SAVE 0 0) (INTEGER 4 0 0 0 INTEGER ()) 0 0 () () 0 () ()
() 0 0)
118 'nhes' 'dimkrig' '' 1 ((VARIABLE UNKNOWN-INTENT UNKNOWN-PROC UNKNOWN
IMPLICIT-SAVE 0 0) (INTEGER 4 0 0 0 INTEGER ()) 0 0 () () 0 () () () 0 0)
119 'nhput' 'dimkrig' '' 1 ((VARIABLE UNKNOWN-INTENT UNKNOWN-PROC
UNKNOWN IMPLICIT-SAVE 0 0) (INTEGER 4 0 0 0 INTEGER ()) 0 0 () () 0 () ()
() 0 0)
120 'nhs' 'dimkrig' '' 1 ((VARIABLE UNKNOWN-INTENT UNKNOWN-PROC UNKNOWN
IMPLICIT-SAVE 0 0) (INTEGER 4 0 0 0 INTEGER ()) 0 0 () () 0 () () () 0 0)
121 'nick' 'dimkrig' '' 1 ((VARIABLE UNKNOWN-INTENT UNKNOWN-PROC UNKNOWN
IMPLICIT-SAVE 0 0) (INTEGER 4 0 0 0 INTEGER ()) 0 0 () () 0 () () () 0 0)
122 'nkri' 'dimkrig' '' 1 ((VARIABLE UNKNOWN-INTENT UNKNOWN-PROC UNKNOWN
IMPLICIT-SAVE 0 0) (INTEGER 4 0 0 0 INTEGER ()) 0 0 () () 0 () () () 0 0)
123 'nls' 'dimkrig' '' 1 ((VARIABLE UNKNOWN-INTENT UNKNOWN-PROC UNKNOWN
IMPLICIT-SAVE 0 0) (INTEGER 4 0 0 0 INTEGER ()) 0 0 () () 0 () () () 0 0)
124 'nmcs' 'dimkrig' '' 1 ((VARIABLE UNKNOWN-INTENT UNKNOWN-PROC UNKNOWN
IMPLICIT-SAVE 0 0) (INTEGER 4 0 0 0 INTEGER ()) 0 0 () () 0 () () () 0 0)
125 'nmxg' 'dimkrig' '' 1 ((VARIABLE UNKNOWN-INTENT UNKNOWN-PROC UNKNOWN
IMPLICIT-SAVE 0 0) (INTEGER 4 0 0 0 INTEGER ()) 0 0 () () 0 () () () 0 0)
126 'nmxh' 'dimkrig' '' 1 ((VARIABLE UNKNOWN-INTENT UNKNOWN-PROC UNKNOWN
IMPLICIT-SAVE 0 0) (INTEGER 4 0 0 0 INTEGER ()) 0 0 () () 0 () () () 0 0)
127 'nmxs' 'dimkrig' '' 1 ((VARIABLE UNKNOWN-INTENT UNKNOWN-PROC UNKNOWN
IMPLICIT-SAVE 0 0) (INTEGER 4 0 0 0 INTEGER ()) 0 0 () () 0 () () () 0 0)
128 'nmxv' 'dimkrig' '' 1 ((VARIABLE UNKNOWN-INTENT UNKNOWN-PROC UNKNOWN
IMPLICIT-SAVE 0 0) (INTEGER 4 0 0 0 INTEGER ()) 0 0 () () 0 () () () 0 0)
129 'nopt' 'dimkrig' '' 1 ((VARIABLE UNKNOWN-INTENT UNKNOWN-PROC UNKNOWN
IMPLICIT-SAVE 0 0) (INTEGER 4 0 0 0 INTEGER ()) 0 0 () () 0 () () () 0 0)
130 'nparent' 'dimkrig' '' 1 ((VARIABLE UNKNOWN-INTENT UNKNOWN-PROC
UNKNOWN IMPLICIT-SAVE 0 0 ALLOCATABLE DIMENSION) (INTEGER 4 0 0 0
INTEGER ()) 0 0 () (1 0 DEFERRED () ()) 0 () () () 0 0)
131 'nptstoaddpercyc' 'dimkrig' '' 1 ((VARIABLE UNKNOWN-INTENT
UNKNOWN-PROC UNKNOWN IMPLICIT-SAVE 0 0) (INTEGER 4 0 0 0 INTEGER ()) 0 0
() () 0 () () () 0 0)
132 'nsample' 'dimkrig' '' 1 ((VARIABLE UNKNOWN-INTENT UNKNOWN-PROC
UNKNOWN IMPLICIT-SAVE 0 0) (INTEGER 4 0 0 0 INTEGER ()) 0 0 () () 0 () ()
() 0 0)
133 'nsize' 'dimkrig' '' 1 ((VARIABLE UNKNOWN-INTENT UNKNOWN-PROC
UNKNOWN IMPLICIT-SAVE 0 0) (INTEGER 4 0 0 0 INTEGER ()) 0 0 () () 0 () ()
() 0 0)
134 'nstyle' 'dimkrig' '' 1 ((VARIABLE UNKNOWN-INTENT UNKNOWN-PROC
UNKNOWN IMPLICIT-SAVE 0 0) (INTEGER 4 0 0 0 INTEGER ()) 0 0 () () 0 () ()
() 0 0)
135 'num_proc' 'dimkrig' '' 1 ((VARIABLE UNKNOWN-INTENT UNKNOWN-PROC
UNKNOWN IMPLICIT-SAVE 0 0) (INTEGER 4 0 0 0 INTEGER ()) 0 0 () () 0 () ()
() 0 0)
136 'nvfm' 'dimkrig' '' 1 ((VARIABLE UNKNOWN-INTENT UNKNOWN-PROC UNKNOWN
IMPLICIT-SAVE 0 0) (INTEGER 4 0 0 0 INTEGER ()) 0 0 () () 0 () () () 0 0)
137 'ofopt' 'dimkrig' '' 1 ((VARIABLE UNKNOWN-INTENT UNKNOWN-PROC
UNKNOWN IMPLICIT-SAVE 0 0 DIMENSION) (REAL 8 0 0 0 REAL ()) 0 0 () (1 0
EXPLICIT (CONSTANT (INTEGER 4 0 0 0 INTEGER ()) 0 '1') (CONSTANT (
INTEGER 4 0 0 0 INTEGER ()) 0 '10')) 0 () () () 0 0)
138 'outfile' 'dimkrig' '' 1 ((VARIABLE UNKNOWN-INTENT UNKNOWN-PROC
UNKNOWN IMPLICIT-SAVE 0 0) (CHARACTER 1 0 0 0 CHARACTER ((CONSTANT (
INTEGER 4 0 0 0 INTEGER ()) 0 '60'))) 0 0 () () 0 () () () 0 0)
139 'ouuflag' 'dimkrig' '' 1 ((VARIABLE UNKNOWN-INTENT UNKNOWN-PROC
UNKNOWN IMPLICIT-SAVE 0 0) (INTEGER 4 0 0 0 INTEGER ()) 0 0 () () 0 () ()
() 0 0)
140 'pkl' 'dimkrig' '' 1 ((VARIABLE UNKNOWN-INTENT UNKNOWN-PROC UNKNOWN
IMPLICIT-SAVE 0 0) (REAL 8 0 0 0 REAL ()) 0 0 () () 0 () () () 0 0)
141 'pku' 'dimkrig' '' 1 ((VARIABLE UNKNOWN-INTENT UNKNOWN-PROC UNKNOWN
IMPLICIT-SAVE 0 0) (REAL 8 0 0 0 REAL ()) 0 0 () () 0 () () () 0 0)
142 'probtype' 'dimkrig' '' 1 ((VARIABLE UNKNOWN-INTENT UNKNOWN-PROC
UNKNOWN IMPLICIT-SAVE 0 0 DIMENSION) (INTEGER 4 0 0 0 INTEGER ()) 0 0 ()
(1 0 EXPLICIT (CONSTANT (INTEGER 4 0 0 0 INTEGER ()) 0 '1') (CONSTANT (
INTEGER 4 0 0 0 INTEGER ()) 0 '100')) 0 () () () 0 0)
143 'r' 'dimkrig' '' 1 ((VARIABLE UNKNOWN-INTENT UNKNOWN-PROC UNKNOWN
IMPLICIT-SAVE 0 0 ALLOCATABLE DIMENSION) (REAL 8 0 0 0 REAL ()) 0 0 () (
2 0 DEFERRED () () () ()) 0 () () () 0 0)
144 'randomflag' 'dimkrig' '' 1 ((VARIABLE UNKNOWN-INTENT UNKNOWN-PROC
UNKNOWN IMPLICIT-SAVE 0 0) (INTEGER 4 0 0 0 INTEGER ()) 0 0 () () 0 () ()
() 0 0)
145 'randomini' 'dimkrig' '' 1 ((VARIABLE UNKNOWN-INTENT UNKNOWN-PROC
UNKNOWN IMPLICIT-SAVE 0 0) (INTEGER 4 0 0 0 INTEGER ()) 0 0 () () 0 () ()
() 0 0)
146 'randomtestl' 'dimkrig' '' 1 ((VARIABLE UNKNOWN-INTENT UNKNOWN-PROC
UNKNOWN IMPLICIT-SAVE 0 0) (INTEGER 4 0 0 0 INTEGER ()) 0 0 () () 0 () ()
() 0 0)
147 'readmcsamples' 'dimkrig' '' 1 ((VARIABLE UNKNOWN-INTENT
UNKNOWN-PROC UNKNOWN IMPLICIT-SAVE 0 0) (INTEGER 4 0 0 0 INTEGER ()) 0 0
() () 0 () () () 0 0)
148 'reps' 'dimkrig' '' 1 ((VARIABLE UNKNOWN-INTENT UNKNOWN-PROC UNKNOWN
IMPLICIT-SAVE 0 0) (REAL 8 0 0 0 REAL ()) 0 0 () () 0 () () () 0 0)
149 'reusesamples' 'dimkrig' '' 1 ((VARIABLE UNKNOWN-INTENT UNKNOWN-PROC
UNKNOWN IMPLICIT-SAVE 0 0) (INTEGER 4 0 0 0 INTEGER ()) 0 0 () () 0 () ()
() 0 0)
150 'rij' 'dimkrig' '' 1 ((VARIABLE UNKNOWN-INTENT UNKNOWN-PROC UNKNOWN
IMPLICIT-SAVE 0 0 ALLOCATABLE DIMENSION) (REAL 8 0 0 0 REAL ()) 0 0 () (
2 0 DEFERRED () () () ()) 0 () () () 0 0)
151 'rinv' 'dimkrig' '' 1 ((VARIABLE UNKNOWN-INTENT UNKNOWN-PROC UNKNOWN
IMPLICIT-SAVE 0 0 ALLOCATABLE DIMENSION) (REAL 8 0 0 0 REAL ()) 0 0 () (
2 0 DEFERRED () () () ()) 0 () () () 0 0)
152 'rmsemat' 'dimkrig' '' 1 ((VARIABLE UNKNOWN-INTENT UNKNOWN-PROC
UNKNOWN IMPLICIT-SAVE 0 0 ALLOCATABLE DIMENSION) (REAL 8 0 0 0 REAL ())
0 0 () (3 0 DEFERRED () () () () () ()) 0 () () () 0 0)
153 'rsample' 'dimkrig' '' 1 ((VARIABLE UNKNOWN-INTENT UNKNOWN-PROC
UNKNOWN IMPLICIT-SAVE 0 0) (INTEGER 4 0 0 0 INTEGER ()) 0 0 () () 0 () ()
() 0 0)
154 'runnum' 'dimkrig' '' 1 ((VARIABLE UNKNOWN-INTENT UNKNOWN-PROC
UNKNOWN IMPLICIT-SAVE 0 0) (INTEGER 4 0 0 0 INTEGER ()) 0 0 () () 0 () ()
() 0 0)
155 'ryfb' 'dimkrig' '' 1 ((VARIABLE UNKNOWN-INTENT UNKNOWN-PROC UNKNOWN
IMPLICIT-SAVE 0 0 ALLOCATABLE DIMENSION) (REAL 8 0 0 0 REAL ()) 0 0 () (
2 0 DEFERRED () () () ()) 0 () () () 0 0)
156 'sampl' 'dimkrig' '' 1 ((VARIABLE UNKNOWN-INTENT UNKNOWN-PROC
UNKNOWN IMPLICIT-SAVE 0 0 ALLOCATABLE DIMENSION) (REAL 8 0 0 0 REAL ())
0 0 () (2 0 DEFERRED () () () ()) 0 () () () 0 0)
157 'sample' 'dimkrig' '' 1 ((VARIABLE UNKNOWN-INTENT UNKNOWN-PROC
UNKNOWN IMPLICIT-SAVE 0 0 ALLOCATABLE DIMENSION) (REAL 8 0 0 0 REAL ())
0 0 () (2 0 DEFERRED () () () ()) 0 () () () 0 0)
158 'selectedevaluation' 'dimkrig' '' 1 ((VARIABLE UNKNOWN-INTENT
UNKNOWN-PROC UNKNOWN IMPLICIT-SAVE 0 0) (INTEGER 4 0 0 0 INTEGER ()) 0 0
() () 0 () () () 0 0)
159 'tdd_thres' 'dimkrig' '' 1 ((VARIABLE UNKNOWN-INTENT UNKNOWN-PROC
UNKNOWN IMPLICIT-SAVE 0 0 DIMENSION) (REAL 8 0 0 0 REAL ()) 0 0 () (1 0
EXPLICIT (CONSTANT (INTEGER 4 0 0 0 INTEGER ()) 0 '1') (CONSTANT (
INTEGER 4 0 0 0 INTEGER ()) 0 '4')) 0 () () () 0 0)
160 'tdim' 'dimkrig' '' 1 ((VARIABLE UNKNOWN-INTENT UNKNOWN-PROC UNKNOWN
IMPLICIT-SAVE 0 0) (INTEGER 4 0 0 0 INTEGER ()) 0 0 () () 0 () () () 0 0)
161 'tdx' 'dimkrig' '' 1 ((VARIABLE UNKNOWN-INTENT UNKNOWN-PROC UNKNOWN
IMPLICIT-SAVE 0 0 ALLOCATABLE DIMENSION) (REAL 8 0 0 0 REAL ()) 0 0 () (
1 0 DEFERRED () ()) 0 () () () 0 0)
162 'tdxinit' 'dimkrig' '' 1 ((VARIABLE UNKNOWN-INTENT UNKNOWN-PROC
UNKNOWN IMPLICIT-SAVE 0 0 DIMENSION) (REAL 8 0 0 0 REAL ()) 0 0 () (1 0
EXPLICIT (CONSTANT (INTEGER 4 0 0 0 INTEGER ()) 0 '1') (CONSTANT (
INTEGER 4 0 0 0 INTEGER ()) 0 '2')) 0 () () () 0 0)
163 'tdxmax' 'dimkrig' '' 1 ((VARIABLE UNKNOWN-INTENT UNKNOWN-PROC
UNKNOWN IMPLICIT-SAVE 0 0) (REAL 8 0 0 0 REAL ()) 0 0 () () 0 () () () 0
0)
164 'tdxmin' 'dimkrig' '' 1 ((VARIABLE UNKNOWN-INTENT UNKNOWN-PROC
UNKNOWN IMPLICIT-SAVE 0 0) (REAL 8 0 0 0 REAL ()) 0 0 () () 0 () () () 0
0)
165 'tdxx' 'dimkrig' '' 1 ((VARIABLE UNKNOWN-INTENT UNKNOWN-PROC UNKNOWN
IMPLICIT-SAVE 0 0 ALLOCATABLE DIMENSION) (REAL 8 0 0 0 REAL ()) 0 0 () (
1 0 DEFERRED () ()) 0 () () () 0 0)
166 'vcon' 'dimkrig' '' 1 ((VARIABLE UNKNOWN-INTENT UNKNOWN-PROC UNKNOWN
IMPLICIT-SAVE 0 0 DIMENSION) (REAL 8 0 0 0 REAL ()) 0 0 () (1 0 EXPLICIT
(CONSTANT (INTEGER 4 0 0 0 INTEGER ()) 0 '1') (CONSTANT (INTEGER 4 0 0 0
INTEGER ()) 0 '10')) 0 () () () 0 0)
167 'vgfac' 'dimkrig' '' 1 ((VARIABLE UNKNOWN-INTENT UNKNOWN-PROC
UNKNOWN IMPLICIT-SAVE 0 0) (REAL 8 0 0 0 REAL ()) 0 0 () () 0 () () () 0
0)
168 'vnug' 'dimkrig' '' 1 ((VARIABLE UNKNOWN-INTENT UNKNOWN-PROC UNKNOWN
IMPLICIT-SAVE 0 0) (REAL 8 0 0 0 REAL ()) 0 0 () () 0 () () () 0 0)
169 'xavg' 'dimkrig' '' 1 ((VARIABLE UNKNOWN-INTENT UNKNOWN-PROC UNKNOWN
IMPLICIT-SAVE 0 0 DIMENSION) (REAL 8 0 0 0 REAL ()) 0 0 () (1 0 EXPLICIT
(CONSTANT (INTEGER 4 0 0 0 INTEGER ()) 0 '1') (CONSTANT (INTEGER 4 0 0 0
INTEGER ()) 0 '100')) 0 () () () 0 0)
170 'xavgt' 'dimkrig' '' 1 ((VARIABLE UNKNOWN-INTENT UNKNOWN-PROC
UNKNOWN IMPLICIT-SAVE 0 0 DIMENSION) (REAL 8 0 0 0 REAL ()) 0 0 () (1 0
EXPLICIT (CONSTANT (INTEGER 4 0 0 0 INTEGER ()) 0 '1') (CONSTANT (
INTEGER 4 0 0 0 INTEGER ()) 0 '100')) 0 () () () 0 0)
171 'xstd' 'dimkrig' '' 1 ((VARIABLE UNKNOWN-INTENT UNKNOWN-PROC UNKNOWN
IMPLICIT-SAVE 0 0 DIMENSION) (REAL 8 0 0 0 REAL ()) 0 0 () (1 0 EXPLICIT
(CONSTANT (INTEGER 4 0 0 0 INTEGER ()) 0 '1') (CONSTANT (INTEGER 4 0 0 0
INTEGER ()) 0 '100')) 0 () () () 0 0)
172 'xstdt' 'dimkrig' '' 1 ((VARIABLE UNKNOWN-INTENT UNKNOWN-PROC
UNKNOWN IMPLICIT-SAVE 0 0 DIMENSION) (REAL 8 0 0 0 REAL ()) 0 0 () (1 0
EXPLICIT (CONSTANT (INTEGER 4 0 0 0 INTEGER ()) 0 '1') (CONSTANT (
INTEGER 4 0 0 0 INTEGER ()) 0 '100')) 0 () () () 0 0)
173 'yy' 'dimkrig' '' 1 ((VARIABLE UNKNOWN-INTENT UNKNOWN-PROC UNKNOWN
IMPLICIT-SAVE 0 0 ALLOCATABLE DIMENSION) (REAL 8 0 0 0 REAL ()) 0 0 () (
1 0 DEFERRED () ()) 0 () () () 0 0)
174 'zsample' 'dimkrig' '' 1 ((VARIABLE UNKNOWN-INTENT UNKNOWN-PROC
UNKNOWN IMPLICIT-SAVE 0 0) (INTEGER 4 0 0 0 INTEGER ()) 0 0 () () 0 () ()
() 0 0)
)

('bdfac' 0 2 'c_dim' 0 3 'ccm' 0 4 'ccon1' 0 5 'ccon2' 0 6 'ccrf' 0 7
'cmode' 0 8 'cnug' 0 9 'cpena' 0 10 'ctr' 0 11 'd_dim' 0 12 'd_power' 0
13 'd_theta' 0 14 'dadd' 0 15 'dak' 0 16 'dat' 0 17 'devi' 0 18
'deviratio' 0 19 'deviratio_best' 0 20 'devmax' 0 21 'devmin' 0 22
'diffloc' 0 23 'diffloc2' 0 24 'difflocar' 0 25 'difflocmax' 0 26
'dimkrig' 0 27 'distloc' 0 28 'dmul' 0 29 'dpar' 0 30 'ds' 0 31
'dutchorderg' 0 32 'dxadd' 0 33 'dynamics' 0 34 'evlfnc' 0 35 'fb' 0 36
'fcnt' 0 37 'fct' 0 38 'fctindx' 0 39 'fgcnt' 0 40 'fghcnt' 0 41 'filenum'
0 42 'fmean' 0 43 'fmeanprime' 0 44 'fr' 0 45 'frfinv' 0 46 'fun' 0 47
'func' 0 48 'fvar' 0 49 'fvarprime' 0 50 'gfun' 0 51 'gfunc' 0 52 'hfun'
0 53 'hfunc' 0 54 'hstat' 0 55 'hvec' 0 56 'hvect' 0 57 'i_dim' 0 58 'iak'
0 59 'ibl' 0 60 'icm' 0 61 'icone' 0 62 'ict_dummy' 0 63 'ict_sample' 0
64 'id_proc' 0 65 'idopt' 0 66 'ifid' 0 67 'inf' 0 68 'info' 0 69 'ipv'
0 70 'iran' 0 71 'irij' 0 72 'iscf' 0 73 'it4opt' 0 74 'iterdel' 0 75
'itrust' 0 76 'j_dim' 0 77 'jbl' 0 78 'kord' 0 79 'kreg' 0 80 'kreg_orig'
0 81 'lhsdyn' 0 82 'llfd_best' 0 83 'lmax' 0 84 'loopcounter' 0 85 'lopt'
0 86 'lstat' 0 87 'mainprog' 0 88 'maxsample' 0 89 'maxsamplewant' 0 90
'mean' 0 91 'mei' 0 92 'mgfac' 0 93 'mlc' 0 94 'mode_dck' 0 95 'mreg' 0
96 'ncok' 0 97 'ncon' 0 98 'ncr1' 0 99 'ncr2' 0 100 'ndck' 0 101 'ndebug'
0 102 'ndiffloc' 0 103 'ndim' 0 104 'ndimt' 0 105 'ndmf' 0 106 'newflag'
0 107 'nfcok' 0 108 'nfcon' 0 109 'nfdck' 0 110 'nfdmf' 0 111 'nfick' 0
112 'nfkri' 0 113 'nfopt' 0 114 'nfunc' 0 115 'nfvfm' 0 116 'ngput' 0
117 'nhes' 0 118 'nhput' 0 119 'nhs' 0 120 'nick' 0 121 'nkri' 0 122 'nls'
0 123 'nmcs' 0 124 'nmxg' 0 125 'nmxh' 0 126 'nmxs' 0 127 'nmxv' 0 128
'nopt' 0 129 'nparent' 0 130 'nptstoaddpercyc' 0 131 'nsample' 0 132
'nsize' 0 133 'nstyle' 0 134 'num_proc' 0 135 'nvfm' 0 136 'ofopt' 0 137
'outfile' 0 138 'ouuflag' 0 139 'pkl' 0 140 'pku' 0 141 'probtype' 0 142
'r' 0 143 'randomflag' 0 144 'randomini' 0 145 'randomtestl' 0 146
'readmcsamples' 0 147 'reps' 0 148 'reusesamples' 0 149 'rij' 0 150 'rinv'
0 151 'rmsemat' 0 152 'rsample' 0 153 'runnum' 0 154 'ryfb' 0 155 'sampl'
0 156 'sample' 0 157 'selectedevaluation' 0 158 'tdd_thres' 0 159 'tdim'
0 160 'tdx' 0 161 'tdxinit' 0 162 'tdxmax' 0 163 'tdxmin' 0 164 'tdxx' 0
165 'vcon' 0 166 'vgfac' 0 167 'vnug' 0 168 'xavg' 0 169 'xavgt' 0 170
'xstd' 0 171 'xstdt' 0 172 'yy' 0 173 'zsample' 0 174)
