GFORTRAN module version '9' created from ludim.f90
MD5:71324bef397745c94ac0dfb99990320b -- If you edit this, you'll get what you deserve.

(() () () () () () () () () () () () () () () () () () () () () () () ()
() () ())

()

()

()

()

()

(2 'alu' 'lu' '' 1 ((VARIABLE UNKNOWN-INTENT UNKNOWN-PROC UNKNOWN
IMPLICIT-SAVE 0 0 ALLOCATABLE DIMENSION) (REAL 8 0 0 0 REAL ()) 0 0 () (
2 0 DEFERRED () () () ()) 0 () () () 0 0)
3 'dl' 'lu' '' 1 ((VARIABLE UNKNOWN-INTENT UNKNOWN-PROC UNKNOWN
IMPLICIT-SAVE 0 0 ALLOCATABLE DIMENSION) (REAL 8 0 0 0 REAL ()) 0 0 () (
2 0 DEFERRED () () () ()) 0 () () () 0 0)
4 'du' 'lu' '' 1 ((VARIABLE UNKNOWN-INTENT UNKNOWN-PROC UNKNOWN
IMPLICIT-SAVE 0 0 ALLOCATABLE DIMENSION) (REAL 8 0 0 0 REAL ()) 0 0 () (
2 0 DEFERRED () () () ()) 0 () () () 0 0)
5 'lu' 'lu' '' 1 ((MODULE UNKNOWN-INTENT UNKNOWN-PROC UNKNOWN UNKNOWN 0
0) (UNKNOWN 0 0 0 0 UNKNOWN ()) 0 0 () () 0 () () () 0 0)
6 'tmp' 'lu' '' 1 ((VARIABLE UNKNOWN-INTENT UNKNOWN-PROC UNKNOWN
IMPLICIT-SAVE 0 0 ALLOCATABLE DIMENSION) (REAL 8 0 0 0 REAL ()) 0 0 () (
2 0 DEFERRED () () () ()) 0 () () () 0 0)
)

('alu' 0 2 'dl' 0 3 'du' 0 4 'lu' 0 5 'tmp' 0 6)
