GFORTRAN module version '9' created from Timer.f90
MD5:4ae0d3180ae08ae8c2f74e551ec3b0e6 -- If you edit this, you'll get what you deserve.

(() () () () () () () () () () () () () () () () () () () () () () () ()
() () ())

()

()

()

()

()

(2 'timerinit' 'timer_mod' '' 1 ((PROCEDURE UNKNOWN-INTENT MODULE-PROC
DECL UNKNOWN 0 0 SUBROUTINE) (UNKNOWN 0 0 0 0 UNKNOWN ()) 0 0 () () 0 ()
() () 0 0)
3 'timerreport' 'timer_mod' '' 1 ((PROCEDURE UNKNOWN-INTENT MODULE-PROC
DECL UNKNOWN 0 0 SUBROUTINE) (UNKNOWN 0 0 0 0 UNKNOWN ()) 0 0 () () 0 ()
() () 0 0)
4 'timerstart' 'timer_mod' '' 1 ((PROCEDURE UNKNOWN-INTENT MODULE-PROC
DECL UNKNOWN 0 0 SUBROUTINE) (UNKNOWN 0 0 0 0 UNKNOWN ()) 5 0 (6) () 0 ()
() () 0 0)
7 'timerstop' 'timer_mod' '' 1 ((PROCEDURE UNKNOWN-INTENT MODULE-PROC
DECL UNKNOWN 0 0 SUBROUTINE) (UNKNOWN 0 0 0 0 UNKNOWN ()) 8 0 (9) () 0 ()
() () 0 0)
6 'name' '' '' 5 ((VARIABLE IN UNKNOWN-PROC UNKNOWN UNKNOWN 0 0 DUMMY) (
CHARACTER 1 0 0 0 CHARACTER (())) 0 0 () () 0 () () () 0 0)
9 'name' '' '' 8 ((VARIABLE IN UNKNOWN-PROC UNKNOWN UNKNOWN 0 0 DUMMY) (
CHARACTER 1 0 0 0 CHARACTER (())) 0 0 () () 0 () () () 0 0)
)

('timerinit' 0 2 'timerreport' 0 3 'timerstart' 0 4 'timerstop' 0 7)
