
******************************************************************************
This program contains Ipopt, a library for large-scale nonlinear optimization.
 Ipopt is released as open source code under the Eclipse Public License (EPL).
         For more information visit http://projects.coin-or.org/Ipopt
******************************************************************************

This is Ipopt version 3.10.0, running with linear solver ma27.

Number of nonzeros in equality constraint Jacobian...:        0
Number of nonzeros in inequality constraint Jacobian.:        0
Number of nonzeros in Lagrangian Hessian.............:        3

Total number of variables............................:        2
                     variables with only lower bounds:        0
                variables with lower and upper bounds:        2
                     variables with only upper bounds:        0
Total number of equality constraints.................:        0
Total number of inequality constraints...............:        0
        inequality constraints with only lower bounds:        0
   inequality constraints with lower and upper bounds:        0
        inequality constraints with only upper bounds:        0

iter    objective    inf_pr   inf_du lg(mu)  ||d||  lg(rg) alpha_du alpha_pr  ls
   0  2.4200000e+01 0.00e+00 2.16e+02   0.0 0.00e+00    -  0.00e+00 0.00e+00   0
   1  4.7267869e+00 0.00e+00 4.87e+00  -0.3 3.77e-01    -  9.99e-01 1.00e+00f  1
   2  4.0610750e+00 0.00e+00 2.24e+01  -0.4 4.09e+00    -  9.86e-01 1.25e-01f  4
   3  3.2566347e+00 0.00e+00 1.39e+01  -2.0 3.02e-01    -  1.00e+00 1.00e+00f  1
   4  2.6609807e+00 0.00e+00 1.46e+01  -3.3 3.22e-01    -  1.00e+00 1.00e+00f  1
   5  2.0193481e+00 0.00e+00 5.73e+00  -4.8 1.33e-01    -  1.00e+00 1.00e+00f  1
   6  1.6831748e+00 0.00e+00 6.57e+00  -6.3 3.09e-01    -  1.00e+00 5.00e-01f  2
   7  1.2622207e+00 0.00e+00 5.50e+00  -8.0 1.66e-01    -  1.00e+00 1.00e+00f  1
   8  9.2833545e-01 0.00e+00 5.61e+00  -9.7 1.67e-01    -  1.00e+00 1.00e+00f  1
   9  6.4985964e-01 0.00e+00 3.89e+00 -11.0 1.39e-01    -  1.00e+00 1.00e+00f  1
iter    objective    inf_pr   inf_du lg(mu)  ||d||  lg(rg) alpha_du alpha_pr  ls
  10  4.5276553e-01 0.00e+00 5.12e+00 -11.0 1.60e-01    -  1.00e+00 1.00e+00f  1
  11  2.8175542e-01 0.00e+00 2.07e+00 -11.0 1.02e-01    -  1.00e+00 1.00e+00f  1
  12  2.0579328e-01 0.00e+00 6.75e+00 -11.0 1.73e-01    -  1.00e+00 1.00e+00f  1
  13  9.0172052e-02 0.00e+00 5.42e-01 -11.0 9.63e-02    -  1.00e+00 1.00e+00f  1
  14  5.2414713e-02 0.00e+00 3.03e+00 -11.0 2.75e-01    -  1.00e+00 5.00e-01f  2
  15  2.0725707e-02 0.00e+00 1.14e+00 -11.0 1.13e-01    -  1.00e+00 1.00e+00f  1
  16  7.1618782e-03 0.00e+00 2.03e+00 -11.0 1.35e-01    -  1.00e+00 1.00e+00f  1
  17  1.1764830e-03 0.00e+00 2.59e-01 -11.0 6.01e-02    -  1.00e+00 1.00e+00f  1
  18  8.8570608e-05 0.00e+00 3.13e-01 -11.0 5.59e-02    -  1.00e+00 1.00e+00f  1
  19  4.7473837e-07 0.00e+00 5.45e-03 -11.0 9.01e-03    -  1.00e+00 1.00e+00f  1
iter    objective    inf_pr   inf_du lg(mu)  ||d||  lg(rg) alpha_du alpha_pr  ls
  20  2.4724018e-11 0.00e+00 1.73e-04 -11.0 1.35e-03    -  1.00e+00 1.00e+00f  1
  21  4.2813884e-20 0.00e+00 1.64e-09 -11.0 4.96e-06    -  1.00e+00 1.00e+00f  1

Number of Iterations....: 21

                                   (scaled)                 (unscaled)
Objective...............:   4.2813883871564639e-20    4.2813883871564639e-20
Dual infeasibility......:   1.6430645324843834e-09    1.6430645324843834e-09
Constraint violation....:   0.0000000000000000e+00    0.0000000000000000e+00
Complementarity.........:   9.9999999999995858e-12    9.9999999999995858e-12
Overall NLP error.......:   1.6430645324843834e-09    1.6430645324843834e-09


Number of objective function evaluations             = 39
Number of objective gradient evaluations             = 22
Number of equality constraint evaluations            = 0
Number of inequality constraint evaluations          = 0
Number of equality constraint Jacobian evaluations   = 0
Number of inequality constraint Jacobian evaluations = 0
Number of Lagrangian Hessian evaluations             = 21
Total CPU secs in IPOPT (w/o function evaluations)   =      0.007
Total CPU secs in NLP function evaluations           =      0.000

EXIT: Optimal Solution Found.
